{
  "$schema": "https://turbo.build/schema.json",
  "pipeline": {
    "build": {
      "dependsOn": ["^build"],
      "outputs": ["dist/**"]
    },
    "test": {
      "inputs": ["src/**/*.ts", "src/**/*.tsx"]
    },
    "start": {
      "dependsOn": ["build", "test"]
    },
    "dev": {
      "cache": false,
      "persistent": true
    },
    "lint": {}
  }
}
